id,name,model_id:id,group_id:id,perm_read,perm_write,perm_create,perm_unlink

access_evol_song_dj,Song,model_evol_song,evol.group_evol_dj,1,1,1,1
access_evol_album_dj,Album,model_evol_album,evol.group_evol_dj,1,1,1,1